<?xml version="1.0" encoding="utf-8"?>
<!-- Generator: Adobe Illustrator 21.0.0, SVG Export Plug-In . SVG Version: 6.00 Build 0)  -->
<svg version="1.1" id="Layer_1" xmlns="http://www.w3.org/2000/svg" xmlns:xlink="http://www.w3.org/1999/xlink" x="0px" y="0px"
	 viewBox="0 0 900.3 508.2" style="enable-background:new 0 0 900.3 508.2;" xml:space="preserve">
<style type="text/css">
	.st0{fill:#FFFFFF;stroke:#000000;stroke-miterlimit:10;}
	.st1{fill:#007934;}
</style>
<ellipse class="st0" cx="450.1" cy="254.1" rx="426" ry="239.9"/>
<g>
	<g>
		<path class="st1" d="M192.6,86.1c-15,7.2-34.2,16.6-48.6,25.9l-0.5,0.4l-1.6,121.3l-39.7-85.6l-1.2,1.2
			C85.4,165,73.3,182,65.2,199.8l-0.1,108.7l0.1,0.5c10.1,21.9,26.8,43.2,49.6,63.4l2,1.8v-74.9l31.6,97.7l0.1,0.4l0.3,0.2
			c13.7,9.4,29.3,17.1,43,23.5l1.7,0.8l0.8-336.5L192.6,86.1z"/>
		<path class="st1" d="M255.7,61.8c-19,5.8-33,11.6-49.4,18.6l-0.7,0.3v155.9l51.7,19.5V61.4L255.7,61.8z"/>
		<path class="st1" d="M344.5,44.4V43l-1.4,0.2c-20.9,2.5-38.4,5.8-56.7,10.5l-0.9,0.2v353l-25.8-7.4v-88l-54.1-19.4l0.8,135.8
			l0.7,0.3c38.6,16.6,85.9,29.7,136.7,38l1.4,0.2L344.5,44.4z"/>
		<path class="st1" d="M520.6,63.8L520.6,63.8c0-0.3-2.7-22-22.7-27.8h-0.3c-5.7-0.8-11.9-0.8-17.8-0.8c-21.5,0-59.3,1.2-86.8,2
			l-12.6,0.4c-3.2,0.4-6,0.8-8.8,1.2s-5.7,0.8-8.9,1.2l-1.1,0.1l0.8,427.4v1.1l1.1,0.1c26.6,3.2,54.9,4.8,84.1,4.8
			c18.8,0,37.3-0.8,55-2.4h0.5l0.3-0.4c10.5-11.8,15.9-19.4,17.2-23.8C523.7,438.8,520.7,79.1,520.6,63.8z M460,93.3v323h-46v-323
			L460,93.3L460,93.3z"/>
		<path class="st1" d="M682.9,285v-0.6L659,266.6L682,255V93.7c0-0.5-0.2-11.5-19.4-22.9c-35.7-13.2-77-23.3-123-29.9l-1.4-0.2
			v427.5l1.4-0.2c16.9-2.4,37-6.4,53.4-9.7l1-0.2V286.3H628l3.2,162.7l1.6-0.5c16.4-5.2,34-11,51-17.8l0.8-0.3L682.9,285z
			 M628.8,118.3L628,229h-37.1V105.4C600.2,106.1,625.4,113.6,628.8,118.3z"/>
		<path class="st1" d="M826.4,194.9c-19.6-35.7-72.3-82.4-120-106.3l-1.8-0.9v332.6l1.8-0.9c9.7-4.8,28.1-14.4,42.9-24.3l0.5-0.4
			v-75.2l1-1l31.3-5.3v57.9l2.1-2c19.3-18.5,33.1-36.3,42.2-54.4l0.1-119.2L826.4,194.9z M782.2,194.9c0,17.4-0.6,51.5-0.8,58.3
			h-28.3v-86.3C758.6,170.1,774.9,180.7,782.2,194.9z"/>
	</g>
	<g>
		<path class="st1" d="M450.3,23.5c230.2,0,416.8,103.2,416.8,230.6S680.5,484.8,450.3,484.8S33.4,381.5,33.4,254.1
			S220,23.5,450.3,23.5 M450.3,12.1c-57.1,0-112.6,6.2-164.8,18.4C234.8,42.4,189.3,59.4,150.1,81c-39.8,22.1-71,47.7-93,76.5
			C33.8,188,22,220.5,22,254.2s11.8,66.2,35.1,96.7c22,28.7,53.2,54.4,92.9,76.3c39.2,21.7,84.8,38.7,135.4,50.5
			c52.2,12.2,107.7,18.4,164.8,18.4s112.6-6.2,164.8-18.4c50.7-11.9,96.2-28.9,135.4-50.5c39.7-21.9,70.9-47.6,92.9-76.3
			c23.3-30.5,35.1-63,35.1-96.7s-11.8-66.2-35.1-96.7c-22-28.7-53.2-54.4-92.9-76.3c-39.1-21.8-84.6-38.8-135.3-50.6
			C562.9,18.3,507.4,12.1,450.3,12.1L450.3,12.1z"/>
	</g>
</g>
</svg>
